{
    "guid": "dffab13b-7168-48f5-98ac-c5e9b4bc2ec9",
    "title": "Fetch Request - CNN Top Stories",
    "fetchUrl": "http://rss.cnn.com/rss/edition.rss",
    "feedCategory": "news",
    "deferred": true,
    "reuseChannel": true,
    "refreshInterval": -1,
    "refreshExpressions": [
        "10 * ? * *",
        "40 5,7-19,21,23 ? * MON-FRI"
    ],
    "refreshTimeZone": "US/Pacific",
    "maxRefreshCount": 10000,
    "refreshExpirationTime": "1390000000000"
},
{
    "guid": "7477f0f5-60ae-4434-a7f4-c143aece9b86",
    "title": "Fetch Request - NYTimes Home Page (US)",
    "fetchUrl": "http://www.nytimes.com/services/xml/rss/nyt/HomePage.xml",
    "feedCategory": "news",
    "deferred": true,
    "reuseChannel": true,
    "refreshInterval": -1,
    "refreshExpressions": [
        "6 * ? * *",
        "36 5,7-19,21,23 ? * MON-FRI"
    ],
    "refreshTimeZone": "US/Pacific",
    "maxRefreshCount": 10000,
    "refreshExpirationTime": "1390000000000"
},
{
    "guid": "d62250b4-2387-4485-8da5-b970b3ddf65d",
    "title": "Fetch Request - Time.com Top Stories",
    "fetchUrl": "http://feeds2.feedburner.com/time/topstories",
    "feedCategory": "news",
    "deferred": true,
    "reuseChannel": true,
    "refreshInterval": -1,
    "refreshExpressions": [
        "30 * ? * *",
        "0 5,7-19,21,23 ? * MON-FRI"
    ],
    "refreshTimeZone": "US/Pacific",
    "maxRefreshCount": 10000,
    "refreshExpirationTime": "1390000000000"
},







{
    "guid": "484e5124-17e1-448b-b9ad-afebce77fe27",
    "title": "Fetch Request - CNN World",
    "fetchUrl": "http://rss.cnn.com/rss/edition_world.rss",
    "feedCategory": "news",
    "deferred": true,
    "reuseChannel": true,
    "refreshInterval": -1,
    "refreshExpressions": [
        "25 * ? * *",
        "55 5,7-19,21,23 ? * MON-FRI"
    ],
    "refreshTimeZone": "US/Pacific",
    "maxRefreshCount": 10000,
    "refreshExpirationTime": "1390000000000"
},
{
    "guid": "a831d852-9d92-4194-be79-b38b26b6496c",
    "title": "Fetch Request - CNN U.S.",
    "fetchUrl": "http://rss.cnn.com/rss/edition_us.rss",
    "feedCategory": "news",
    "deferred": true,
    "reuseChannel": true,
    "refreshInterval": -1,
    "refreshExpressions": [
        "40 * ? * *",
        "10 5,7-19,21,23 ? * MON-FRI"
    ],
    "refreshTimeZone": "US/Pacific",
    "maxRefreshCount": 10000,
    "refreshExpirationTime": "1390000000000"
},






{
    "guid": "dab78972-9903-459a-858a-d55a4fbd4acd",
    "title": "Fetch Request - NYTimes US",
    "fetchUrl": "http://www.nytimes.com/services/xml/rss/nyt/US.xml",
    "feedCategory": "news",
    "deferred": true,
    "reuseChannel": true,
    "refreshInterval": -1,
    "refreshExpressions": [
        "12 * ? * *",
        "42 5,7-19,21,23 ? * MON-FRI"
    ],
    "refreshTimeZone": "US/Pacific",
    "maxRefreshCount": 10000,
    "refreshExpirationTime": "1390000000000"
},
{
    "guid": "a8c557ce-7cdd-495e-bc34-31dd96504e86",
    "title": "Fetch Request - NYTimes Politics",
    "fetchUrl": "http://www.nytimes.com/services/xml/rss/nyt/Politics.xml",
    "feedCategory": "news",
    "deferred": true,
    "reuseChannel": true,
    "refreshInterval": -1,
    "refreshExpressions": [
        "18 * ? * *",
        "48 5,7-19,21,23 ? * MON-FRI"
    ],
    "refreshTimeZone": "US/Pacific",
    "maxRefreshCount": 10000,
    "refreshExpirationTime": "1390000000000"
},
{
    "guid": "1f91df65-db6a-4c78-9523-49969ed0cd01",
    "title": "Fetch Request - NYTimes World",
    "fetchUrl": "http://www.nytimes.com/services/xml/rss/nyt/World.xml",
    "feedCategory": "news",
    "deferred": true,
    "reuseChannel": true,
    "refreshInterval": -1,
    "refreshExpressions": [
        "24 * ? * *",
        "54 5,7-19,21,23 ? * MON-FRI"
    ],
    "refreshTimeZone": "US/Pacific",
    "maxRefreshCount": 10000,
    "refreshExpirationTime": "1390000000000"
},






{
    "guid": "2241899c-b4ee-499b-b1f6-ec0bc1ad2a1e",
    "title": "Fetch Request - Time.com News Feed",
    "fetchUrl": "http://feeds.feedburner.com/time/newsfeed",
    "feedCategory": "news",
    "deferred": true,
    "reuseChannel": true,
    "refreshInterval": -1,
    "refreshExpressions": [
        "35 * ? * *",
        "5 5,7-19,21,23 ? * MON-FRI"
    ],
    "refreshTimeZone": "US/Pacific",
    "maxRefreshCount": 10000,
    "refreshExpirationTime": "1390000000000"
},
{
    "guid": "afce5f2d-e734-403b-aaaa-cec88e4a2496",
    "title": "Fetch Request - Time.com U.S.",
    "fetchUrl": "http://feeds2.feedburner.com/time/nation",
    "feedCategory": "news",
    "deferred": true,
    "reuseChannel": true,
    "refreshInterval": -1,
    "refreshExpressions": [
        "41 * ? * *",
        "11 5,7-19,21,23 ? * MON-FRI"
    ],
    "refreshTimeZone": "US/Pacific",
    "maxRefreshCount": 10000,
    "refreshExpirationTime": "1390000000000"
},
{
    "guid": "39a893d7-e65e-4afc-90c4-d5dc689918f8",
    "title": "Fetch Request - Time.com World",
    "fetchUrl": "http://feeds2.feedburner.com/time/world",
    "feedCategory": "news",
    "deferred": true,
    "reuseChannel": true,
    "refreshInterval": -1,
    "refreshExpressions": [
        "47 * ? * *",
        "17 5,7-19,21,23 ? * MON-FRI"
    ],
    "refreshTimeZone": "US/Pacific",
    "maxRefreshCount": 10000,
    "refreshExpirationTime": "1390000000000"
},
{
    "guid": "53296c20-9c10-4b38-8330-b760e24e11c3",
    "title": "Fetch Request - Time.com Politics",
    "fetchUrl": "http://feeds.feedburner.com/timeblogs/swampland",
    "feedCategory": "news",
    "deferred": true,
    "reuseChannel": true,
    "refreshInterval": -1,
    "refreshExpressions": [
        "53 * ? * *",
        "23 5,7-19,21,23 ? * MON-FRI"
    ],
    "refreshTimeZone": "US/Pacific",
    "maxRefreshCount": 10000,
    "refreshExpirationTime": "1390000000000"
},





{
    "guid": "88c17fdb-e161-4110-b1bd-9ee7e755a62e",
    "title": "Fetch Request - ",
    "fetchUrl": "",
    "feedCategory": "news",
    "deferred": true,
    "reuseChannel": true,
    "refreshInterval": -1,
    "refreshExpressions": [
        "0 * ? * *",
        "0 5,7-19,21,23 ? * MON-FRI"
    ],
    "refreshTimeZone": "US/Pacific",
    "maxRefreshCount": 10000,
    "refreshExpirationTime": "1390000000000"
},


